<?xml version="1.0" encoding="utf-8"?>
<!-- Generator: Adobe Illustrator 22.1.0, SVG Export Plug-In . SVG Version: 6.00 Build 0)  -->
<svg version="1.1" id="Layer_1" xmlns="http://www.w3.org/2000/svg" xmlns:xlink="http://www.w3.org/1999/xlink" x="0px" y="0px"
	 viewBox="0 0 64 80" style="enable-background:new 0 0 64 80;" xml:space="preserve">
<style type="text/css">
	.st0{fill:#AFB7BC;}
</style>
<g>
	<path class="st0" d="M42.3,60.6c3.5-0.7,6.8-1.9,9.9-3.5c-1.9,3.1-4.5,5.8-7.8,7.9c-11.3,7.1-26.1,3.6-33.1-7.7
		c-0.1-0.2-0.2-0.2-0.2-0.4c0.2,0.1,0.2,0.2,0.3,0.2c0.9,0.4,1.7,0.9,2.5,1.2c1.7,0.8,3.6,1.4,5.4,1.8c1.8,0.5,3.7,0.9,5.6,1.1
		c1,0.1,2,0.2,2.9,0.3l2.7,0.2H31h0.2h0.4h0.7h1.4c1,0,1.9-0.1,2.9-0.2c1-0.1,1.9-0.2,2.9-0.3C40.4,61,41.4,60.8,42.3,60.6z
		 M58.1,51.3c-0.9,0.9-1.8,1.6-2.8,2.4c-1,0.6-2,1.4-3.1,1.9c-2.1,1.1-4.4,2-6.7,2.7c-4.7,1.4-9.6,2-14.6,1.9
		c-1.4-0.1-2.4-0.1-3.7-0.2c-1.3-0.2-2.5-0.2-3.7-0.5c-2.5-0.4-4.8-1-7.1-1.8c-2.3-0.9-4.5-1.8-6.6-3.1c-1-0.6-2-1.4-3-2.1
		c-1-0.8-1.8-1.6-2.6-2.5c-1.7-1.7-2.9-3.9-3.7-6.2c-0.1-0.6-0.2-1.2-0.3-1.7c0-0.6,0-1.2,0-1.7v-0.2V40v-0.1c0,0,0-0.2,0-0.2
		l0.1-0.4l0.2-0.8c0.1-0.5,0.2-1,0.5-1.6l0.3-0.8c0.1-0.2,0.2-0.5,0.4-0.7c0.2-0.5,0.5-1,0.8-1.4s0.6-0.9,1-1.3s0.7-0.7,1-1.1
		c0.3-0.4,0.7-0.7,1.1-1c0.4-0.3,0.7-0.6,1.1-0.9c0.8-0.5,1.5-1.1,2.4-1.5c3-1.7,6-2.7,8.7-3.4c0.4-0.3,0.9-0.6,1.4-0.9
		c8.9-5.7,20.3-4.6,28,1.8c2.4,0.8,4.8,1.9,7.4,3.4c0.8,0.4,1.5,1,2.3,1.6c0.4,0.3,0.7,0.6,1.1,1c0.4,0.3,0.7,0.6,1,1
		c1.4,1.4,2.5,3.3,3.2,5.4c0.2,0.6,0.3,1.1,0.4,1.7l0.1,0.9l0.1,0.4v0.5c-0.1,0.6,0,1-0.2,1.6c-0.2,0.6-0.3,1.2-0.5,1.8
		C61.3,47.5,59.9,49.5,58.1,51.3z M59.5,44.3c0.2-0.4,0.3-0.8,0.5-1.2c0.2-0.5,0.2-1,0.2-1.5v-0.2v-0.1l0,0V41v-0.7
		c0-0.5-0.1-0.9-0.2-1.4c-0.4-1.7-1.1-3.5-2.3-4.9c-0.2-0.4-0.6-0.7-0.9-1c-0.3-0.3-0.6-0.7-1-1c-0.7-0.6-1.3-1.2-2.1-1.7
		C52,29,50,27.9,48.1,27.1c1.5,1.4,2.8,3,3.9,4.8c2.9,4.8,4.1,10.1,3.5,15.3c-1.6,1.4-3.6,2.6-5.8,3.7c-2.7,1.2-5.8,2.1-9,2.6
		c-0.8,0.2-1.6,0.3-2.4,0.3c-0.8,0.1-1.7,0.2-2.5,0.2c-0.8,0-1.7,0.2-2.5,0.1H31l-2.7-0.2c-0.9-0.1-1.6-0.2-2.4-0.2
		c-1.6-0.2-3.3-0.5-4.8-0.8c-3.2-0.7-6.2-1.7-8.8-3.1c-1.7-0.9-3.3-1.9-4.6-3c-0.7-7.9,2.5-15.8,8.9-21c-2.3,0.8-4.8,1.9-7.2,3.5
		c-0.7,0.5-1.4,1-2.1,1.6c-0.3,0.3-0.6,0.6-1,1c-0.3,0.3-0.6,0.6-1,1c-1.2,1.4-2.1,3.1-2.5,4.8C2.8,38,2.6,38.4,2.6,39l-0.1,0.8v0.4
		c0,0.1,0-0.1,0-0.1v0.1v0.1v0.2c0.1,0.5,0.1,0.9,0.2,1.4c0.2,0.5,0.2,0.9,0.4,1.4c0.7,1.7,1.9,3.3,3.4,4.6c0.7,0.7,1.6,1.3,2.4,1.9
		c0.9,0.6,1.7,1.1,2.8,1.6c1.9,1,4,1.7,6,2.4c1,0.3,2.1,0.6,3.3,0.8c0.6,0.1,1.1,0.2,1.7,0.3l1.7,0.2c1.1,0.2,2.2,0.2,3.3,0.4
		c1.1,0.1,2.4,0.2,3.4,0.2c4.5,0.1,9-0.4,13.3-1.4c2.1-0.6,4.2-1.2,6.1-2.1c1-0.4,1.9-1,2.8-1.4c0.9-0.6,1.7-1.1,2.5-1.7
		C57.4,47.5,58.7,46,59.5,44.3z M51.1,23c3.2,0,5.8-2.6,5.8-5.8s-2.6-5.8-5.8-5.8c-3.2,0-5.8,2.6-5.8,5.8S47.9,23,51.1,23z
		 M3.3,57.9c-1.6,0-2.9,1.3-2.9,2.9c0,1.6,1.3,2.9,2.9,2.9s2.9-1.3,2.9-2.9C6.3,59.1,5,57.9,3.3,57.9z M60,57.3
		c-2.1,0-3.8,1.7-3.8,3.8c0,2.1,1.7,3.8,3.8,3.8c2.1,0,3.8-1.7,3.8-3.8C63.8,59,62,57.3,60,57.3z"/>
</g>
</svg>
